module gitlab.wm.local/wm/pkg/transport/db

go 1.19

require (
	gorm.io/driver/postgres v1.5.9
	gorm.io/gorm v1.25.11
)

require (
	github.com/jackc/pgpassfile v1.0.0 // indirect
	github.com/jackc/pgservicefile v0.0.0-20240606120523-5a60cdf6a761 // indirect
	github.com/jackc/pgx/v5 v5.6.0 // indirect
	github.com/jackc/puddle/v2 v2.2.1 // indirect
	github.com/jinzhu/inflection v1.0.0 // indirect
	github.com/jinzhu/now v1.1.5 // indirect
	golang.org/x/crypto v0.26.0 // indirect
	golang.org/x/sync v0.8.0 // indirect
	golang.org/x/text v0.17.0 // indirect
)
