module gitlab.wm.local/wm/pkg/sanitizer

go 1.19

require (
	github.com/microcosm-cc/bluemonday v1.0.27
	github.com/rollick/douceur v0.3.3
	github.com/slt/douceur v0.3.3
	golang.org/x/net v0.28.0
)

require (
	github.com/aymerick/douceur v0.2.0 // indirect
	github.com/gorilla/css v1.0.1 // indirect
)
